Demografía del parentesco con énfasis en estimaciones de duelo
…
Descomprimimos el archivo una vez:

dir.create("data/wpp_latam", showWarnings = FALSE)
unzip("data/wpp_latam_1950_2023.zip", exdir = "data/wpp_latam")

# Países disponibles
countries <- read_csv("data/wpp_latam/countries.csv")
countries

## # A tibble: 25 × 2
##    iso3  country  
##    <chr> <chr>    
##  1 ARG   Argentina
##  2 BOL   Bolivia  
##  3 BRA   Brasil   
##  4 CHL   Chile    
##  5 COL   Colombia 
##  6 ECU   Ecuador  
##  7 GUY   Guyana   
##  8 PRY   Paraguay 
##  9 PER   Perú     
## 10 SUR   Surinam  
## # ℹ 15 more rows
…
